module bitbucket.org/rha7/gmmdatastructs

require (
	github.com/gopherjs/gopherjs v0.0.0-20181103185306-d547d1d9531e // indirect
	github.com/jtolds/gls v4.2.1+incompatible // indirect
	github.com/smartystreets/assertions v0.0.0-20190116191733-b6c0e53d7304 // indirect
	github.com/smartystreets/goconvey v0.0.0-20181108003508-044398e4856c
)
